<svg width="25" height="25" viewBox="0 0 25 25" fill="none" xmlns="http://www.w3.org/2000/svg">
<circle cx="12.5" cy="12.5" r="12.5" fill="#333333"/>
<path fill-rule="evenodd" clip-rule="evenodd" d="M13.9231 9.45143V11.0114H16L15.5385 13.0171H13.9231V18.1429H11.6154V13.0171H10V11.0114H11.6154V9.45143C11.6154 9.45143 11.4077 7.33429 13.4615 7H16V8.78286H14.8462C14.8462 8.78286 13.9692 8.76057 13.9231 9.45143Z" fill="white"/>
</svg>
