<svg width="29" height="30" viewBox="0 0 29 30" fill="none" xmlns="http://www.w3.org/2000/svg">
<path d="M13.5172 5.33497V5.31034C13.5172 2.38241 11.1348 0 8.2069 0H3.37931C3.11234 0 2.89655 0.216276 2.89655 0.482759V8.2069C2.89655 9.85986 3.65593 11.3381 4.844 12.3128C1.91366 13.6234 0 16.5186 0 19.7931V28.4828C0 28.7492 0.215793 28.9655 0.482759 28.9655H15.931C16.198 28.9655 16.4138 28.7492 16.4138 28.4828V23.4539C19.5314 22.133 21.7241 19.0419 21.7241 15.4483V14C21.7241 9.37131 18.0837 5.58745 13.5172 5.33497ZM13.5172 9.65517C15.6467 9.65517 17.3793 11.3878 17.3793 13.5172C17.3793 14.8048 16.7435 15.9441 15.7717 16.6465C14.9694 14.7217 13.467 13.1643 11.5727 12.3103C12.3982 11.6321 13.0118 10.7095 13.3116 9.65517H13.5172ZM3.86207 8.2069V0.965517H8.2069C10.6028 0.965517 12.5517 2.9149 12.5517 5.31034V5.7931V8.2069C12.5517 9.84538 11.6393 11.2743 10.2963 12.0144C10.1432 12.0984 9.98538 12.1723 9.82414 12.2365C9.81255 12.2413 9.8 12.2452 9.78841 12.2495C8.78138 12.6372 7.6329 12.6372 6.62634 12.2495C6.61428 12.2447 6.60221 12.2408 6.59014 12.2365C6.42841 12.1728 6.27055 12.0984 6.118 12.0144C4.77448 11.2743 3.86207 9.84538 3.86207 8.2069ZM15.4488 28H0.965517V19.7931C0.965517 16.689 2.91103 13.9652 5.82738 12.9534C5.86165 12.9703 5.89786 12.9819 5.93262 12.9983C6.06248 13.0601 6.19476 13.117 6.33041 13.1682C6.36952 13.1827 6.40814 13.1977 6.44724 13.2112C6.99903 13.4057 7.58945 13.5172 8.2069 13.5172C8.82338 13.5172 9.41331 13.4062 9.96414 13.2121C10.0047 13.1981 10.0452 13.1827 10.0853 13.1677C10.2195 13.1166 10.3508 13.0606 10.4802 12.9988C10.515 12.9823 10.5517 12.9708 10.5859 12.9534C12.5652 13.6418 14.1559 15.1668 14.9317 17.107C14.8888 17.1239 14.8453 17.1394 14.8019 17.1548C14.7439 17.1756 14.6865 17.1968 14.6281 17.2147C14.5557 17.2364 14.4818 17.2538 14.4079 17.2712C14.3626 17.2818 14.3177 17.2948 14.2718 17.304C14.1839 17.3214 14.0941 17.3334 14.0043 17.345C13.9691 17.3494 13.9348 17.3566 13.8996 17.36C13.7736 17.3726 13.6461 17.3793 13.5172 17.3793H8.68966V15.4483C8.68966 15.2532 8.57234 15.077 8.39179 15.0022C8.21076 14.9274 8.00365 14.9684 7.86559 15.107L2.55524 20.4173C2.36648 20.6061 2.36648 20.9112 2.55524 21.0999L7.86559 26.4103C7.90759 26.4523 7.95683 26.4822 8.00897 26.5059C8.02345 26.5126 8.03841 26.5165 8.05338 26.5218C8.09345 26.5353 8.13448 26.5435 8.17697 26.5464C8.1871 26.5464 8.19676 26.5517 8.2069 26.5517C8.21269 26.5517 8.21848 26.5483 8.22476 26.5483C8.28124 26.5464 8.33772 26.5377 8.39179 26.515C8.57234 26.4402 8.68966 26.264 8.68966 26.069V24.1379H13.0345C13.2903 24.1379 13.5452 24.122 13.8001 24.0993C13.8928 24.0911 13.985 24.0805 14.0768 24.0694C14.2288 24.0506 14.3804 24.0269 14.5315 23.9999C14.839 23.9463 15.1408 23.8782 15.4362 23.7932C15.4406 23.7918 15.4444 23.7913 15.4488 23.7899V28V28ZM20.7586 15.4483C20.7586 18.761 18.6586 21.5846 15.723 22.68C15.5221 22.7548 15.3199 22.8214 15.1161 22.8794C15.0838 22.8886 15.051 22.8958 15.0181 22.9045C14.8299 22.9552 14.6406 23.0001 14.4509 23.0363C14.3659 23.0522 14.2795 23.0628 14.1936 23.0759C14.0497 23.0981 13.9059 23.1217 13.7615 23.1357C13.5216 23.1579 13.2797 23.1724 13.0345 23.1724H8.2069C7.93993 23.1724 7.72414 23.3887 7.72414 23.6552V24.9036L3.57917 20.7586L7.72414 16.6137V17.8621C7.72414 18.1286 7.93993 18.3448 8.2069 18.3448H13.5172C13.7036 18.3448 13.8866 18.3318 14.0676 18.311C14.1106 18.3062 14.1526 18.2975 14.1955 18.2912C14.3374 18.271 14.4774 18.2459 14.6155 18.2135C14.6619 18.2029 14.7072 18.1903 14.7531 18.1783C14.8888 18.1421 15.0215 18.1006 15.1523 18.0537C15.1958 18.0383 15.2392 18.0228 15.2822 18.0059C15.4251 17.9494 15.5646 17.8867 15.7003 17.8172C15.721 17.8066 15.7437 17.7993 15.764 17.7882C15.7664 17.7868 15.7679 17.7843 15.7708 17.7829C17.2997 16.9723 18.3448 15.3652 18.3448 13.5172C18.3448 10.8553 16.1792 8.68966 13.5172 8.68966V8.2069V6.29083C17.5521 6.5409 20.7586 9.90331 20.7586 14V15.4483Z" transform="translate(6.81201 0.58374)" fill="#444444"/>
<path d="M1.93103 0C1.93103 1.06497 1.06497 1.93103 0 1.93103V2.89655C1.59745 2.89655 2.89655 1.59745 2.89655 0H1.93103Z" transform="translate(15.0186 8.79059)" fill="#444444"/>
<path d="M1.44828 0C0.649793 0 0 0.649793 0 1.44828H0.965517C0.965517 1.18228 1.18179 0.965517 1.44828 0.965517C1.71476 0.965517 1.93103 1.18228 1.93103 1.44828H2.89655C2.89655 0.649793 2.24676 0 1.44828 0Z" transform="translate(11.6462 5.41125)" fill="#444444"/>
<path d="M1.44828 0C0.649793 0 0 0.649793 0 1.44828H0.965517C0.965517 1.18228 1.18179 0.965517 1.44828 0.965517C1.71476 0.965517 1.93103 1.18228 1.93103 1.44828H2.89655C2.89655 0.649793 2.24676 0 1.44828 0Z" transform="translate(15.0186 5.41125)" fill="#444444"/>
<path d="M6.27586 2.89655C4.9449 2.89655 3.86207 1.81372 3.86207 0.482759C3.86207 0.216276 3.64628 0 3.37931 0C3.11234 0 2.89655 0.216276 2.89655 0.482759C2.89655 1.81372 1.81372 2.89655 0.482759 2.89655C0.215793 2.89655 0 3.11283 0 3.37931C0 3.64579 0.215793 3.86207 0.482759 3.86207C1.81372 3.86207 2.89655 4.9449 2.89655 6.27586C2.89655 6.54234 3.11234 6.75862 3.37931 6.75862C3.64628 6.75862 3.86207 6.54234 3.86207 6.27586C3.86207 4.9449 4.9449 3.86207 6.27586 3.86207C6.54283 3.86207 6.75862 3.64579 6.75862 3.37931C6.75862 3.11283 6.54283 2.89655 6.27586 2.89655ZM3.37931 4.53648C3.094 4.06338 2.69524 3.66462 2.22214 3.37931C2.69524 3.094 3.094 2.69524 3.37931 2.22214C3.66462 2.69524 4.06338 3.094 4.53648 3.37931C4.06338 3.66462 3.66462 4.06338 3.37931 4.53648Z" transform="translate(0.539062 0.58374)" fill="#444444"/>
</svg>
