{
    "extends": "../tslint.json",
    "rules": {
        "directive-selector": [
            true,
            "attribute",
            [
                "app",
                ""
            ],
            "camelCase"
        ],
        "component-selector": [
            true,
            "element",
            [
                "app",
                ""
            ],
            [
                "kebab-case",
                "camelCase"
            ]
        ],
        "one-line": false,
        "no-shadowed-variable": false
    }
}
